<svg xmlns="http://www.w3.org/2000/svg" width="194" height="80" viewBox="0 0 194 80">
    <g fill="none" fill-rule="evenodd">
        <path fill="#00FF78" d="M124.158 77.742a1.828 1.828 0 0 0 1.823 1.829h26.727a1.828 1.828 0 0 0 1.823-1.833v-8.151h-30.39l.017 8.155zM83.678 0h26.733c1.007 0 1.823.821 1.823 1.833v8.151H81.873l-.016-8.147A1.828 1.828 0 0 1 83.679 0z"/>
        <path fill="#0000F6" d="M193.891 29.45h-9.925v25.235c0 3.259-2.068 5.364-5.268 5.364-3.298 0-5.267-2.005-5.267-5.364V29.45h-9.921v-9.733H193.89v9.733zM26.86 48.271l-3.28.856c-1.909.498-5.653 1.199-7.998 1.199-3.911 0-5.656-1.855-5.656-6.015v-9.118c0-4.159 1.745-6.014 5.656-6.014 2.345 0 6.09.701 8 1.2l3.29.857 1.893-9.518-2.83-.83c-1.418-.416-6.057-1.497-10.418-1.497C6.09 19.392 0 25.595 0 35.194v9.118c0 9.6 6.09 15.803 15.516 15.803 4.019 0 8.439-.982 10.418-1.562l2.841-.833-1.916-9.448zm33.123-3.67v.292c0 3.274-2.077 5.388-5.291 5.388-3.314 0-5.292-2.014-5.292-5.388V34.612c0-3.273 2.077-5.388 5.292-5.388 3.313 0 5.291 2.015 5.291 5.388v9.99zm-5.291-25.21c-8.7 0-15.262 6.544-15.262 15.22v10.282c0 8.678 6.561 15.22 15.262 15.22 8.7 0 15.261-6.542 15.261-15.22V34.612c0-8.676-6.56-15.22-15.261-15.22zm79.376 40.463v-25.29c0-3.258 2.068-5.364 5.267-5.364 3.299 0 5.268 2.006 5.268 5.364v25.29h9.925v-25.29c0-8.637-6.532-15.151-15.193-15.151-8.66 0-15.192 6.514-15.192 15.151v25.29h9.925zm-21.829-40.139v25.237c0 8.638-6.532 15.151-15.193 15.151-8.66 0-15.192-6.513-15.192-15.151V19.716h9.925v25.237c0 3.358 1.97 5.363 5.267 5.363 3.2 0 5.267-2.105 5.267-5.363V19.716h9.926z"/>
    </g>
</svg>
